%YAML 1.1
%TAG !u! tag:unity3d.com,2011:
--- !u!114 &11400000
MonoBehaviour:
  m_ObjectHideFlags: 0
  m_PrefabParentObject: {fileID: 0}
  m_PrefabInternal: {fileID: 0}
  m_GameObject: {fileID: 0}
  m_Enabled: 1
  m_EditorHideFlags: 0
  m_Script: {fileID: 11500000, guid: eace5119d90e2864283de886fede9551, type: 3}
  m_Name: Quadri_6
  m_EditorClassIdentifier: 
  Number: 6
  Seed: 1
  SeedImage: {fileID: 21300000, guid: 09bb2878451497747abb55e92de7f565, type: 3}
  NumImage: {fileID: 21300000, guid: 1672a089b3a1347408fc0e1ab0b4c65f, type: 3}
  CenterImage: {fileID: 21300000, guid: 09bb2878451497747abb55e92de7f565, type: 3}
