%YAML 1.1
%TAG !u! tag:unity3d.com,2011:
--- !u!114 &11400000
MonoBehaviour:
  m_ObjectHideFlags: 0
  m_PrefabParentObject: {fileID: 0}
  m_PrefabInternal: {fileID: 0}
  m_GameObject: {fileID: 0}
  m_Enabled: 1
  m_EditorHideFlags: 0
  m_Script: {fileID: 11500000, guid: eace5119d90e2864283de886fede9551, type: 3}
  m_Name: Fiori_11
  m_EditorClassIdentifier: 
  Number: 11
  Seed: 2
  SeedImage: {fileID: 21300000, guid: 7f8bd4dafd7eb514191ebcd0731b064a, type: 3}
  NumImage: {fileID: 21300000, guid: d50041dfeda705240a927ca7bf2f7e99, type: 3}
  CenterImage: {fileID: 21300000, guid: bcb796bd5efc94f4181b30c321bf5205, type: 3}
